…
v tidyr   0.8.1     v stringr 1.3.1
v readr   1.1.1     v forcats 0.2.0
-- Conflicts ------------------------------------------ tidyverse_conflicts() --
x dplyr::filter() masks stats::filter()
x dplyr::lag()    masks stats::lag()
Warning messages:
1: package ‘tidyverse’ was built under R version 3.4.4 
2: package ‘ggplot2’ was built under R version 3.4.4 
3: package ‘tidyr’ was built under R version 3.4.4 
4: package ‘purrr’ was built under R version 3.4.4 
5: package ‘dplyr’ was built under R version 3.4.4 
6: package ‘stringr’ was built under R version 3.4.4
 draft_data <- read_rds("2018_nhl_draft_data.rds")
 > draft_data
# A tibble: 217 x 16
   draft_league draft_year pick_number round draft_team name 
   <chr>        <chr>            <dbl> <dbl> <chr>      <chr>
 1 NHL Entry D~ 2018                 1     1 Buffalo S~ Rasm~
 2 NHL Entry D~ 2018                 2     1 Carolina ~ Andr~
 3 NHL Entry D~ 2018                 3     1 Montréal ~ Jesp~
 4 NHL Entry D~ 2018                 4     1 Ottawa Se~ Brad~
 5 NHL Entry D~ 2018                 5     1 Arizona C~ Barr~
 6 NHL Entry D~ 2018                 6     1 Detroit R~ Fili~
 7 NHL Entry D~ 2018                 7     1 Vancouver~ Quin~
 8 NHL Entry D~ 2018                 8     1 Chicago B~ Adam~
 9 NHL Entry D~ 2018                 9     1 New York ~ Vita~
10 NHL Entry D~ 2018                10     1 Edmonton ~ Evan~
# ... with 207 more rows, and 10 more variables:
#   position <chr>, shot_handedness <chr>, birth_place <chr>,
#   birth_country <chr>, birthday <chr>, height <dbl>,
#   weight <dbl>, age <dbl>, player_url <chr>,
#   player_statistics <list>
…
> class(c(TRUE, FALSE))
[1] "logical"
> class(c("casey mittelstadt is not that amazing", "TRUE"))
[1] "character"
 > goals <- c(16, 27, 25)
> goals
[1] 16 27 25
> names <- c("Mats Zuccarello", "Mika Zibanejad", "Kevin Hayes")
> names
[1] "Mats Zuccarello" "Mika Zibanejad" 
[3] "Kevin Hayes"    
> goals + names
Error in goals + names : non-numeric argument to binary operator
 > draft_data
# A tibble: 217 x 16
   draft_league draft_year pick_number round draft_team name 
   <chr>        <chr>            <dbl> <dbl> <chr>      <chr>
 1 NHL Entry D~ 2018                 1     1 Buffalo S~ Rasm~
 2 NHL Entry D~ 2018                 2     1 Carolina ~ Andr~
 3 NHL Entry D~ 2018                 3     1 Montréal ~ Jesp~
 4 NHL Entry D~ 2018                 4     1 Ottawa Se~ Brad~
 5 NHL Entry D~ 2018                 5     1 Arizona C~ Barr~
 6 NHL Entry D~ 2018                 6     1 Detroit R~ Fili~
 7 NHL Entry D~ 2018                 7     1 Vancouver~ Quin~
 8 NHL Entry D~ 2018                 8     1 Chicago B~ Adam~
 9 NHL Entry D~ 2018                 9     1 New York ~ Vita~
10 NHL Entry D~ 2018                10     1 Edmonton ~ Evan~
# ... with 207 more rows, and 10 more variables:
#   position <chr>, shot_handedness <chr>, birth_place <chr>,
#   birth_country <chr>, birthday <chr>, height <dbl>,
#   weight <dbl>, age <dbl>, player_url <chr>,
#   player_statistics <list>
…
